{
	"status": "ok",
	"data": {
		"registry": {
			"code": "23846567",
			"location": "Україна, 32460, Хмельницька обл., Дунаєвецький р-н, село Гірчична, ВУЛИЦЯ ЦЕНТРАЛЬНА, будинок 16",
			"email": "verest.tov@gmail.com",
			"activities": [
				{
					"code": "01.11",
					"name": "Вирощування зернових культур (крім рису), бобових культур і насіння олійних культур",
					"isPrimary": false
				},
				{
					"code": "01.42",
					"name": "Розведення іншої великої рогатої худоби та буйволів",
					"isPrimary": false
				},
				{
					"code": "01.46",
					"name": "Розведення свиней",
					"isPrimary": false
				},
				{
					"code": "10.11",
					"name": "Виробництво м'яса",
					"isPrimary": true
				},
				{
					"code": "10.12",
					"name": "Виробництво м'яса свійської птиці",
					"isPrimary": false
				},
				{
					"code": "10.13",
					"name": "Виробництво м'ясних продуктів",
					"isPrimary": false
				},
				{
					"code": "43.11",
					"name": "Знесення",
					"isPrimary": false
				},
				{
					"code": "43.29",
					"name": "Інші будівельно-монтажні роботи",
					"isPrimary": false
				},
				{
					"code": "43.32",
					"name": "Установлення столярних виробів",
					"isPrimary": false
				},
				{
					"code": "43.99",
					"name": "Інші спеціалізовані будівельні роботи, н.в.і.у.",
					"isPrimary": false
				},
				{
					"code": "45.20",
					"name": "Технічне обслуговування та ремонт автотранспортних засобів",
					"isPrimary": false
				},
				{
					"code": "46.11",
					"name": "Діяльність посередників у торгівлі сільськогосподарською сировиною, живими тваринами, текстильною сировиною та напівфабрикатами",
					"isPrimary": false
				},
				{
					"code": "46.32",
					"name": "Оптова торгівля м'ясом і м'ясними продуктами",
					"isPrimary": false
				},
				{
					"code": "46.71",
					"name": "Оптова торгівля твердим, рідким, газоподібним паливом і подібними продуктами",
					"isPrimary": false
				},
				{
					"code": "46.90",
					"name": "Неспеціалізована оптова торгівля",
					"isPrimary": false
				},
				{
					"code": "47.11",
					"name": "Роздрібна торгівля в неспеціалізованих магазинах переважно продуктами харчування, напоями та тютюновими виробами",
					"isPrimary": false
				},
				{
					"code": "47.81",
					"name": "Роздрібна торгівля з лотків і на ринках харчовими продуктами, напоями та тютюновими виробами",
					"isPrimary": false
				},
				{
					"code": "47.99",
					"name": "Інші види роздрібної торгівлі поза магазинами",
					"isPrimary": false
				},
				{
					"code": "49.41",
					"name": "Вантажний автомобільний транспорт",
					"isPrimary": false
				},
				{
					"code": "52.29",
					"name": "Інша допоміжна діяльність у сфері транспорту",
					"isPrimary": false
				},
				{
					"code": "68.20",
					"name": "Надання в оренду й експлуатацію власного чи орендованого нерухомого майна",
					"isPrimary": false
				},
				{
					"code": "47.71",
					"name": "Роздрібна торгівля одягом у спеціалізованих магазинах",
					"isPrimary": false
				},
				{
					"code": "47.30",
					"name": "Роздрібна торгівля пальним",
					"isPrimary": false
				},
				{
					"code": "46.12",
					"name": "Діяльність посередників у торгівлі паливом, рудами, металами та промисловими хімічними речовинами",
					"isPrimary": false
				},
				{
					"code": "47.19",
					"name": "Інші види роздрібної торгівлі в неспеціалізованих магазинах",
					"isPrimary": false
				},
				{
					"code": "47.22",
					"name": "Роздрібна торгівля м'ясом і м'ясними продуктами в спеціалізованих магазинах",
					"isPrimary": false
				},
				{
					"code": "47.24",
					"name": "Роздрібна торгівля хлібобулочними виробами, борошняними та цукровими кондитерськими виробами в спеціалізованих магазинах",
					"isPrimary": false
				},
				{
					"code": "47.29",
					"name": "Роздрібна торгівля іншими продуктами харчування в спеціалізованих магазинах",
					"isPrimary": false
				},
				{
					"code": "47.91",
					"name": "Роздрібна торгівля, що здійснюється фірмами поштового замовлення або через мережу Інтернет",
					"isPrimary": false
				},
				{
					"code": "25.50",
					"name": "Кування, пресування, штампування, профілювання; порошкова металургія",
					"isPrimary": false
				},
				{
					"code": "25.61",
					"name": "Оброблення металів та нанесення покриття на метали",
					"isPrimary": false
				},
				{
					"code": "25.62",
					"name": "Механічне оброблення металевих виробів",
					"isPrimary": false
				},
				{
					"code": "25.99",
					"name": "Виробництво інших готових металевих виробів, н.в.і.у.",
					"isPrimary": false
				},
				{
					"code": "41.20",
					"name": "Будівництво житлових і нежитлових будівель",
					"isPrimary": false
				},
				{
					"code": "46.73",
					"name": "Оптова торгівля деревиною, будівельними матеріалами та санітарно-технічним обладнанням",
					"isPrimary": false
				},
				{
					"code": "49.31",
					"name": "Пасажирський наземний транспорт міського та приміського сполучення",
					"isPrimary": false
				},
				{
					"code": "49.39",
					"name": "Інший пасажирський наземний транспорт, н.в.і.у.",
					"isPrimary": false
				}
			],
			"status": "зареєстровано",
			"phones": [
				"34423",
				"31710"
			],
			"capital": 50000000,
			"heads": [
				{
					"name": "СТРАХОЦІНСЬКИЙ ВІКТОР ВІКТОРОВИЧ",
					"role": "керівник",
					"restriction": "Відповідно до статуту",
					"type": "head"
				}
			],
			"registrations": [
				{
					"code": "37507880",
					"name": "ДЕРЖАВНА СЛУЖБА СТАТИСТИКИ УКРАЇНИ",
					"type": 4000,
					"startDate": "1997-10-16"
				},
				{
					"code": "44070171",
					"name": "ГОЛОВНЕ УПРАВЛІННЯ ДПС У ХМЕЛЬНИЦЬКІЙ ОБЛАСТІ, ДУНАЄВЕЦЬКА ДПІ (ДУНАЄВЕЦЬКИЙ РАЙОН)",
					"description": "Реєстр платників податків",
					"type": "taxoffice",
					"startDate": "1997-10-16"
				},
				{
					"code": "44070171",
					"name": "ГОЛОВНЕ УПРАВЛІННЯ ДПС У ХМЕЛЬНИЦЬКІЙ ОБЛАСТІ, ДУНАЄВЕЦЬКА ДПІ (ДУНАЄВЕЦЬКИЙ РАЙОН)",
					"description": "Реєстр платників єдиного внеску",
					"type": "singletax",
					"startDate": "1998-03-03"
				}
			],
			"beneficiaries": [
				{
					"name": "СТРАХОЦІНСЬКИЙ ВІКТОР ВІКТОРОВИЧ",
					"role": "засновник",
					"amount": 21000000,
					"location": "Україна, 32400, Хмельницька обл., Дунаєвецький р-н, місто Дунаївці(з), вул.Іщенка Миколи, будинок 26",
					"country": "Україна",
					"amountPercent": 42
				},
				{
					"name": "БЕРНАШЕВСЬКИЙ ОЛЕКСАНДР ВЯЧЕСЛАВОВИЧ",
					"role": "засновник",
					"amount": 20000000,
					"location": "Україна, 32400, Хмельницька обл., Дунаєвецький р-н, місто Дунаївці(з), вул.Червона, будинок 33",
					"country": "Україна",
					"amountPercent": 40
				},
				{
					"name": "БЕРНАШЕВСЬКИЙ ЯРОСЛАВ ОЛЕКСАНДРОВИЧ",
					"role": "засновник",
					"amount": 9000000,
					"location": "Україна, 32400, Хмельницька обл., Дунаєвецький р-н, місто Дунаївці(з), вул.Червона, будинок 35",
					"country": "Україна",
					"amountPercent": 18
				},
				{
					"name": "Бернашевський Олександр Вячеславович",
					"role": "Кінцевий бенефіціарний власник",
					"location": "Україна, 32400, Хмельницька обл., Дунаєвецький р-н, місто Дунаївці(з), вул.Червона, будинок 33",
					"country": "Україна",
					"amountPercent": 0
				},
				{
					"name": "Бернашевський Ярослав Олександрович",
					"role": "Кінцевий бенефіціарний власник",
					"location": "Україна, 32400, Хмельницька обл., Дунаєвецький р-н, місто Дунаївці(з), вул.Червона, будинок 35",
					"country": "Україна",
					"amountPercent": 0
				},
				{
					"name": "Страхоцінський Віктор Вікторович",
					"role": "Кінцевий бенефіціарний власник",
					"location": "Україна, 32400, Хмельницька обл., Дунаєвецький р-н, місто Дунаївці(з), вул.Іщенка Миколи, будинок 26",
					"country": "Україна",
					"amountPercent": 0
				}
			],
			"address": {
				"zip": "32460",
				"country": "Україна",
				"address": "Україна, 32460, Хмельницька обл., Дунаєвецький р-н, село Гірчична, ВУЛИЦЯ ЦЕНТРАЛЬНА, будинок 16",
				"parts": {
					"atu": "Хмельницька обл., Дунаєвецький р-н, село Гірчична",
					"street": "ВУЛИЦЯ ЦЕНТРАЛЬНА",
					"house": "16",
					"houseType": "будинок",
					"atuCode": "6821882101"
				}
			},
			"state": 1,
			"management": "Наглядова рада; Директор",
			"registration": {
				"date": "1998-02-26",
				"recordNumber": "16571200000000181",
				"recordDate": "2005-11-15",
				"isSeparation": false,
				"isDivision": false,
				"isMerge": false,
				"isTransformation": false
			},
			"fullName": "ТОВАРИСТВО З ОБМЕЖЕНОЮ ВІДПОВІДАЛЬНІСТЮ \"ВЕРЕСТ\"",
			"shortName": "ТОВ \"ВЕРЕСТ\"",
			"fullNameEn": "",
			"primaryActivity": "10.11 Виробництво м'яса",
			"ceoName": "Страхоцінський Віктор Вікторович",
			"registrationDate": "1998-02-26",
			"lastTime": "2022-12-16 16:03:34",
			"olfCode": "240",
			"olfName": "ТОВАРИСТВО З ОБМЕЖЕНОЮ ВІДПОВІДАЛЬНІСТЮ",
			"executivePower": [],
			"objectName": "Дунаєвецька районна державна адміністрація Хмельницької області"
		},
		"factors": [
			{
				"factorGroup": "tax",
				"icon": "✅",
				"indicator": "positive",
				"number": "238465622076",
				"status": "active",
				"text": "Платник ПДВ",
				"type": "vat",
				"specificText": "Платник ПДВ, ІПН платника 238465622076",
				"databaseDate": "2022-06-03",
				"dateStart": "1997-10-21"
			},
			{
				"count": 19,
				"factorGroup": "court",
				"icon": "⚠️",
				"indicator": "warning",
				"link": "https://opendatabot.com/api/v2/court?company_code=23846567&apiKey=wCfwpSj6ySEc",
				"text": "Судовий реєстр — 19 рішень",
				"type": "courtDecision"
			},
			{
				"count": 9,
				"factorGroup": "court",
				"icon": "⚠️",
				"indicator": "warning",
				"items": [
					{
						"type": "criminal",
						"count": 1,
						"text": "Криминальні",
						"link": "https://opendatabot.com/api/v2/company-courts/criminal?code=23846567&apiKey=wCfwpSj6ySEc",
						"liveCount": 0
					},
					{
						"type": "arbitrage",
						"count": 2,
						"text": "Господарські",
						"link": "https://opendatabot.com/api/v2/company-courts/arbitrage?code=23846567&apiKey=wCfwpSj6ySEc",
						"liveCount": 0
					},
					{
						"type": "administrative",
						"count": 3,
						"text": "Адміністративні",
						"link": "https://opendatabot.com/api/v2/company-courts/administrative?code=23846567&apiKey=wCfwpSj6ySEc",
						"liveCount": 0
					},
					{
						"type": "admin_offense",
						"count": 2,
						"text": "Адміністративні правопорушення",
						"link": "https://opendatabot.com/api/v2/company-courts/admin_offense?code=23846567&apiKey=wCfwpSj6ySEc",
						"liveCount": 0
					},
					{
						"type": "undefined",
						"count": 1,
						"text": "Категорію не визначено",
						"link": "https://opendatabot.com/api/v2/company-courts/undefined?code=23846567&apiKey=wCfwpSj6ySEc",
						"liveCount": 0
					}
				],
				"text": "Судові процеси компанії",
				"type": "courtCompany"
			},
			{
				"factorGroup": "edr",
				"items": [
					{
						"date": "2020-10-21",
						"changes": [
							{
								"field": "beneficiary",
								"record": "delete",
								"text": "видалений бенефіціарний власник",
								"oldValue": "КІНЦЕВИЙ БЕНЕФІЦІАРНИЙ ВЛАСНИК (КОНТРОЛЕР) - СТРАХОЦІНСЬКИЙ ВІКТОР ВІКТОРОВИЧ, УКРАЇНА, , 32400, ХМЕЛЬНИЦЬКА ОБЛ. ДУНАЄВЕЦЬКИЙ Р-Н М. ДУНАЇВЦІ ВУЛ. КАРЛА МАРКСА БУД. 26"
							},
							{
								"field": "beneficiary",
								"record": "delete",
								"text": "видалений бенефіціарний власник",
								"oldValue": "КІНЦЕВИЙ БЕНЕФІЦІАРНИЙ ВЛАСНИК (КОНТРОЛЕР) - БЕРНАШЕВСЬКИЙ ЯРОСЛАВ ОЛЕКСАНДРОВИЧ, УКРАЇНА, , 32319, ХМЕЛЬНИЦЬКА ОБЛ., КАМ’ЯНЕЦЬ-ПОДІЛЬСЬКИЙ Р-Н, С. МУКША КИТАЙГОРОДСЬКА, ПРОВ. АРМІЙСЬКИЙ БУД. 20"
							}
						]
					},
					{
						"date": "2018-04-03",
						"changes": [
							{
								"field": "beneficiary",
								"record": "delete",
								"text": "видалений бенефіціарний власник",
								"oldValue": "МАГЕРА ВАСИЛЬ ВІКТОРОВИЧ"
							}
						]
					},
					{
						"date": "2018-01-10",
						"changes": [
							{
								"field": "ceo_name",
								"record": "update",
								"text": "змінився керівник",
								"newValue": "Страхоцінський Віктор Вікторович",
								"oldValue": "Магера Василь Вікторович"
							}
						]
					}
				],
				"text": "Змін реєстраційної інформації — 3",
				"type": "history"
			},
			{
				"factorGroup": "publicOfficial",
				"text": "Власником компанії є декларант",
				"items": [
					{
						"pib": "Бернашевський Олександр Вячеславович",
						"declarantId": 98652,
						"years": [
							2016,
							2017,
							2018,
							2019,
							2020,
							2021
						]
					}
				],
				"type": "declarantOwner"
			}
		],
		"financialStatement": [
			{
				"year": 2020,
				"revenue": 179206000,
				"expenses": 162882000,
				"profit": 3698000,
				"nonCurrentAssets": 46368000,
				"currentAssets": 31823000,
				"liability": 26271000,
				"balance": 78191000,
				"sector": "nongovernment"
			}
		]
	},
	"forDevelopers": "https://t.me/joinchat/nyOvz2if_pkyOGU1"
}