{
	"name": "СТРАХОЦІНСЬКИЙ ВІКТОР ВІКТОРОВИЧ",
	"country": "Україна",
	"economicActivities": [
		{
			"isMain": false,
			"code": "46.19",
			"description": "Діяльність посередників у торгівлі товарами широкого асортименту"
		},
		{
			"isMain": false,
			"code": "46.32",
			"description": "Оптова торгівля м'ясом і м'ясними продуктами"
		},
		{
			"isMain": false,
			"code": "46.38",
			"description": "Оптова торгівля іншими продуктами харчування, у тому числі рибою, ракоподібними та молюсками"
		},
		{
			"isMain": false,
			"code": "46.90",
			"description": "Неспеціалізована оптова торгівля"
		},
		{
			"isMain": false,
			"code": "47.81",
			"description": "Роздрібна торгівля з лотків і на ринках харчовими продуктами, напоями та тютюновими виробами"
		},
		{
			"isMain": true,
			"code": "47.99",
			"description": "Інші види роздрібної торгівлі поза магазинами"
		},
		{
			"isMain": false,
			"code": "49.41",
			"description": "Вантажний автомобільний транспорт"
		},
		{
			"isMain": false,
			"code": "46.17",
			"description": "Діяльність посередників у торгівлі продуктами харчування, напоями та тютюновими виробами"
		},
		{
			"isMain": false,
			"code": "46.18",
			"description": "Діяльність посередників, що спеціалізуються в торгівлі іншими товарами"
		},
		{
			"isMain": false,
			"code": "46.39",
			"description": "Неспеціалізована оптова торгівля продуктами харчування, напоями та тютюновими виробами"
		},
		{
			"isMain": false,
			"code": "47.19",
			"description": "Інші види роздрібної торгівлі в неспеціалізованих магазинах"
		},
		{
			"isMain": false,
			"code": "47.29",
			"description": "Роздрібна торгівля іншими продуктами харчування в спеціалізованих магазинах"
		},
		{
			"isMain": false,
			"code": "47.89",
			"description": "Роздрібна торгівля з лотків і на ринках іншими товарами"
		},
		{
			"isMain": false,
			"code": "68.20",
			"description": "Надання в оренду й експлуатацію власного чи орендованого нерухомого майна"
		},
		{
			"isMain": false,
			"code": "77.11",
			"description": "Надання в оренду автомобілів і легкових автотранспортних засобів"
		},
		{
			"isMain": false,
			"code": "77.12",
			"description": "Надання в оренду вантажних автомобілів"
		},
		{
			"isMain": false,
			"code": "77.39",
			"description": "Надання в оренду інших машин, устатковання та товарів, н.в.і.у."
		}
	],
	"authorityInfo": "Дунаєвецька районна державна адміністрація Хмельницької області",
	"estateManager": null,
	"registrationOfTerminationCancel": null,
	"contacts": {
		"phone": "+38(096)-707-07-00",
		"additionalPhone": null,
		"fax": null,
		"email": "verest.juryst@gmail.com",
		"webSite": null,
		"otherContacts": null
	},
	"registrationAfterLaw": null,
	"registrationBeforeLaw": {
		"date": "2002-07-30T21:00:00Z",
		"entryDate": "2007-01-21T22:00:00Z",
		"entryNumber": "26570170000002404"
	},
	"foreclosureStartDates": null,
	"mainEconomicActivity": {
		"code": "47.99",
		"description": "Інші види роздрібної торгівлі поза магазинами"
	},
	"terminationStatus": null,
	"registrationOfTermination": null,
	"financeMinistryRegistrationMaxDateOnAddressChange": null,
	"status": "Не перебуває в процесі припинення",
	"actualDate": "2023-10-25T06:26:22Z",
	"address": "Україна, 32400, Хмельницька обл., Дунаєвецький р-н, місто Дунаївці, ВУЛИЦЯ КАРЛА МАРКСА, будинок 26",
	"registrationAuthorities": [
		{
			"code": "37507880",
			"establishment": "ДЕРЖАВНА СЛУЖБА СТАТИСТИКИ УКРАЇНИ",
			"registrationDate": "2008-01-08T22:00:00Z",
			"registrationNumber": null,
			"removalFromRegisterDate": null,
			"removalFromRegisterNumber": null,
			"departmentRegister": null,
			"raw": null
		},
		{
			"code": "44070171",
			"establishment": "ГОЛОВНЕ УПРАВЛІННЯ ДПС У ХМЕЛЬНИЦЬКІЙ ОБЛАСТІ, ДУНАЄВЕЦЬКА ДПІ (ДУНАЄВЕЦЬКИЙ РАЙОН)",
			"registrationDate": "2002-08-04T21:00:00Z",
			"registrationNumber": "209",
			"removalFromRegisterDate": null,
			"removalFromRegisterNumber": null,
			"departmentRegister": "Реєстр платників податків",
			"raw": null
		},
		{
			"code": "44070171",
			"establishment": "ГОЛОВНЕ УПРАВЛІННЯ ДПС У ХМЕЛЬНИЦЬКІЙ ОБЛАСТІ, ДУНАЄВЕЦЬКА ДПІ (ДУНАЄВЕЦЬКИЙ РАЙОН)",
			"registrationDate": "2002-08-05T21:00:00Z",
			"registrationNumber": "4237Ф",
			"removalFromRegisterDate": null,
			"removalFromRegisterNumber": null,
			"departmentRegister": "Реєстр платників єдиного внеску",
			"raw": null
		}
	],
	"singleTaxPayerInfo": {
		"number": "4237Ф",
		"type": "23"
	},
	"contractorType": "Фізична особа-підприємець (ФОП)"
}